%YAML 1.1
%TAG !u! tag:unity3d.com,2011:
--- !u!114 &11400000
MonoBehaviour:
  m_ObjectHideFlags: 0
  m_CorrespondingSourceObject: {fileID: 0}
  m_PrefabInternal: {fileID: 0}
  m_GameObject: {fileID: 0}
  m_Enabled: 1
  m_EditorHideFlags: 0
  m_Script: {fileID: 11500000, guid: 7b22f7ea0bee1d74a8af699a3dd28c67, type: 3}
  m_Name: UITexts
  m_EditorClassIdentifier: 
  choosePiece: '%%PLAYER_COLOR%% player, it''s your turn, choose a piece to move'
  chooseTile: great choice! where do you want to move it to?
  winner: '%%PLAYER_COLOR%% player you won! congratulations!'
